{"failedCount":1,"prefixedPath":"src\/test\/java\/resources\/getApi.feature","packageQualifiedName":"src.test.java.resources.getApi","loopIndex":-1,"relativePath":"src\/test\/java\/resources\/getApi.feature","scenarioResults":[{"sectionIndex":1,"stepResults":[{"result":{"nanos":95244599,"millis":95.244599,"status":"passed"},"step":{"background":true,"line":4,"prefix":"*","index":0,"text":"url 'https:\/\/reqres.in\/api'"}},{"result":{"nanos":8768300,"millis":8.7683,"status":"passed"},"step":{"background":true,"line":5,"prefix":"*","index":1,"text":"headers Accept = 'application\/json'"},"stepLog":"15:59:26.690 did not evaluate to map Accept = 'application\/json': [type: STRING, value: application\/json]\n"},{"result":{"nanos":751000,"millis":0.751,"status":"passed"},"step":{"line":15,"prefix":"Given","index":0,"text":"path '\/users?page=2'"}},{"result":{"nanos":918661000,"millis":918.661,"status":"passed"},"step":{"line":16,"prefix":"When","index":1,"text":"method Get"},"stepLog":"15:59:27.296 request:\n1 > GET https:\/\/reqres.in\/api\/users%3Fpage=2\n1 > Host: reqres.in\n1 > Connection: Keep-Alive\n1 > User-Agent: Apache-HttpClient\/4.5.13 (Java\/1.8.0_121)\n1 > Accept-Encoding: gzip,deflate\n\n\n15:59:27.552 response time in milliseconds: 252\n1 < 200\n1 < Date: Sat, 10 Jun 2023 14:59:22 GMT\n1 < Content-Type: application\/json; charset=utf-8\n1 < Transfer-Encoding: chunked\n1 < Connection: keep-alive\n1 < X-Powered-By: Express\n1 < Access-Control-Allow-Origin: *\n1 < Etag: W\/\"2c1-N6Rqerxquq2kgQhL51EiSg4x0R8\"\n1 < Via: 1.1 vegur\n1 < Cache-Control: max-age=14400\n1 < CF-Cache-Status: HIT\n1 < Age: 466\n1 < Report-To: {\"endpoints\":[{\"url\":\"https:\\\/\\\/a.nel.cloudflare.com\\\/report\\\/v3?s=YEHF1EwUFzMwWUfufs8WorZS05iPfzWVC7isSlV88ldqdz5GcgiIJKH8SJc1ky9aT7jsINaiVRGd5YM5laMDfuPu%2BrkjmfxG5E6EO8KLO0S7SecOO0CbpebO8w%3D%3D\"}],\"group\":\"cf-nel\",\"max_age\":604800}\n1 < NEL: {\"success_fraction\":0,\"report_to\":\"cf-nel\",\"max_age\":604800}\n1 < Vary: Accept-Encoding\n1 < Server: cloudflare\n1 < CF-RAY: 7d527a52e910dcdf-LHR\n{\"page\":1,\"per_page\":6,\"total\":12,\"total_pages\":2,\"data\":[{\"id\":1,\"name\":\"cerulean\",\"year\":2000,\"color\":\"#98B2D1\",\"pantone_value\":\"15-4020\"},{\"id\":2,\"name\":\"fuchsia rose\",\"year\":2001,\"color\":\"#C74375\",\"pantone_value\":\"17-2031\"},{\"id\":3,\"name\":\"true red\",\"year\":2002,\"color\":\"#BF1932\",\"pantone_value\":\"19-1664\"},{\"id\":4,\"name\":\"aqua sky\",\"year\":2003,\"color\":\"#7BC4C4\",\"pantone_value\":\"14-4811\"},{\"id\":5,\"name\":\"tigerlily\",\"year\":2004,\"color\":\"#E2583E\",\"pantone_value\":\"17-1456\"},{\"id\":6,\"name\":\"blue turquoise\",\"year\":2005,\"color\":\"#53B0AE\",\"pantone_value\":\"15-5217\"}],\"support\":{\"url\":\"https:\/\/reqres.in\/#support-heading\",\"text\":\"To keep ReqRes free, contributions towards server costs are appreciated!\"}}\n\n"},{"result":{"nanos":23101,"millis":0.023101,"status":"passed"},"step":{"line":17,"prefix":"Then","index":2,"text":"status 200"}},{"result":{"nanos":67667500,"millis":67.6675,"status":"passed"},"step":{"line":18,"prefix":"And","index":3,"text":"match response.data[0].name == 'cerulean'"}},{"result":{"nanos":6589500,"errorMessage":"match failed: EQUALS\n  $ | actual path does not exist (STRING:NUMBER)\n  '#notpresent'\n  10\n\nsrc\/test\/java\/resources\/getApi.feature:19","millis":6.5895,"status":"failed"},"step":{"line":19,"prefix":"And","index":4,"text":"match response.data.length == 10"},"stepLog":"15:59:27.684 src\/test\/java\/resources\/getApi.feature:19\nAnd match response.data.length == 10\nmatch failed: EQUALS\n  $ | actual path does not exist (STRING:NUMBER)\n  '#notpresent'\n  10\n\nsrc\/test\/java\/resources\/getApi.feature:19\n"}],"line":14,"description":"","durationMillis":1097.705,"failed":true,"error":"match failed: EQUALS\n  $ | actual path does not exist (STRING:NUMBER)\n  '#notpresent'\n  10\n\nsrc\/test\/java\/resources\/getApi.feature:19","executorName":"main","name":"Get Demo2","startTime":1686409166570,"refId":"[2:14]","endTime":1686409167684,"exampleIndex":-1}],"callDepth":0,"name":"Get API Demo","description":"","resultDate":"2023-06-10 03:59:27 PM","durationMillis":1097.705,"passedCount":0}